[
    {
        "timestamp": 1664269488187,
        "fermentor": "AA0C-8AD7B319D4A4M",
        "event_type": "StartRun",
        "fermentation_run": "6e5e05e0-3e43-11ed-b809-eb3f8635957b"
    },
    {
        "timestamp": 1664269490187,
        "fermentor": "AA0C-8AD7B319D4A4M",
        "event_type": "MeasurePh",
        "fermentation_run": "6e5e05e0-3e43-11ed-b809-eb3f8635957b",
        "sensor": "Ph Sensor 1",
        "event_properties": [
            {
                "event_property": "pH",
                "value": 7.21
            }
        ]
    },
    {
        "timestamp": 1664269490187,
        "fermentor": "AA0C-8AD7B319D4A4M",
        "event_type": "MeasureDO",
        "fermentation_run": "6e5e05e0-3e43-11ed-b809-eb3f8635957b",
        "sensor": "DO Sensor 1",
        "event_properties": [
            {
                "event_property": "DissolvedOxygen",
                "value": 5
            }
        ]
    },
    {
        "timestamp": 1664269490188,
        "fermentor": "AA0C-8AD7B319D4A4M",
        "event_type": "MeasureTemperature",
        "fermentation_run": "6e5e05e0-3e43-11ed-b809-eb3f8635957b",
        "sensor": "Temperature Sensor 1",
        "event_properties": [
            {
                "event_property": "Temperature",
                "value": 23.06
            }
        ]
    },
    {
        "timestamp": 1664269492187,
        "fermentor": "AA0C-8AD7B319D4A4M",
        "event_type": "MeasurePh",
        "fermentation_run": "6e5e05e0-3e43-11ed-b809-eb3f8635957b",
        "sensor": "Ph Sensor 1",
        "event_properties": [
            {
                "event_property": "pH",
                "value": 6.93
            }
        ]
    },
    {
        "timestamp": 1664269492188,
        "fermentor": "AA0C-8AD7B319D4A4M",
        "event_type": "MeasureTemperature",
        "fermentation_run": "6e5e05e0-3e43-11ed-b809-eb3f8635957b",
        "sensor": "Temperature Sensor 1",
        "event_properties": [
            {
                "event_property": "Temperature",
                "value": 22.55
            }
        ]
    },
    {
        "timestamp": 1664269494188,
        "fermentor": "AA0C-8AD7B319D4A4M",
        "event_type": "MeasurePh",
        "fermentation_run": "6e5e05e0-3e43-11ed-b809-eb3f8635957b",
        "sensor": "Ph Sensor 1",
        "event_properties": [
            {
                "event_property": "pH",
                "value": 6.56
            }
        ]
    },
    {
        "timestamp": 1664269494188,
        "fermentor": "AA0C-8AD7B319D4A4M",
        "event_type": "MeasureDO",
        "fermentation_run": "6e5e05e0-3e43-11ed-b809-eb3f8635957b",
        "sensor": "DO Sensor 1",
        "event_properties": [
            {
                "event_property": "DissolvedOxygen",
                "value": 7
            }
        ]
    },
    {
        "timestamp": 1664269494189,
        "fermentor": "AA0C-8AD7B319D4A4M",
        "event_type": "MeasureTemperature",
        "fermentation_run": "6e5e05e0-3e43-11ed-b809-eb3f8635957b",
        "sensor": "Temperature Sensor 1",
        "event_properties": [
            {
                "event_property": "Temperature",
                "value": 23.36
            }
        ]
    },
    {
        "timestamp": 1664269496187,
        "fermentor": "AA0C-8AD7B319D4A4M",
        "event_type": "MeasurePh",
        "fermentation_run": "6e5e05e0-3e43-11ed-b809-eb3f8635957b",
        "sensor": "Ph Sensor 1",
        "event_properties": [
            {
                "event_property": "pH",
                "value": 6.8
            }
        ]
    },
    {
        "timestamp": 1664269496188,
        "fermentor": "AA0C-8AD7B319D4A4M",
        "event_type": "MeasureDO",
        "fermentation_run": "6e5e05e0-3e43-11ed-b809-eb3f8635957b",
        "sensor": "DO Sensor 1",
        "event_properties": [
            {
                "event_property": "DissolvedOxygen",
                "value": 9.1
            }
        ]
    },
    {
        "timestamp": 1664269496188,
        "fermentor": "AA0C-8AD7B319D4A4M",
        "event_type": "MeasureTemperature",
        "fermentation_run": "6e5e05e0-3e43-11ed-b809-eb3f8635957b",
        "sensor": "Temperature Sensor 1",
        "event_properties": [
            {
                "event_property": "Temperature",
                "value": 23.1
            }
        ]
    },
    {
        "timestamp": 1664269498187,
        "fermentor": "AA0C-8AD7B319D4A4M",
        "event_type": "MeasurePh",
        "fermentation_run": "6e5e05e0-3e43-11ed-b809-eb3f8635957b",
        "sensor": "Ph Sensor 1",
        "event_properties": [
            {
                "event_property": "pH",
                "value": 6.63
            }
        ]
    },
    {
        "timestamp": 1664269498188,
        "fermentor": "AA0C-8AD7B319D4A4M",
        "event_type": "MeasureDO",
        "fermentation_run": "6e5e05e0-3e43-11ed-b809-eb3f8635957b",
        "sensor": "DO Sensor 1",
        "event_properties": [
            {
                "event_property": "DissolvedOxygen",
                "value": 10.55
            }
        ]
    },
    {
        "timestamp": 1664269498188,
        "fermentor": "AA0C-8AD7B319D4A4M",
        "event_type": "MeasureTemperature",
        "fermentation_run": "6e5e05e0-3e43-11ed-b809-eb3f8635957b",
        "sensor": "Temperature Sensor 1",
        "event_properties": [
            {
                "event_property": "Temperature",
                "value": 24.54
            }
        ]
    },
    {
        "timestamp": 1664269500188,
        "fermentor": "AA0C-8AD7B319D4A4M",
        "event_type": "MeasurePh",
        "fermentation_run": "6e5e05e0-3e43-11ed-b809-eb3f8635957b",
        "sensor": "Ph Sensor 1",
        "event_properties": [
            {
                "event_property": "pH",
                "value": 6.81
            }
        ]
    },
    {
        "timestamp": 1664269500188,
        "fermentor": "AA0C-8AD7B319D4A4M",
        "event_type": "MeasureDO",
        "fermentation_run": "6e5e05e0-3e43-11ed-b809-eb3f8635957b",
        "sensor": "DO Sensor 1",
        "event_properties": [
            {
                "event_property": "DissolvedOxygen",
                "value": 10.08
            }
        ]
    },
    {
        "timestamp": 1664269500188,
        "fermentor": "AA0C-8AD7B319D4A4M",
        "event_type": "MeasureTemperature",
        "fermentation_run": "6e5e05e0-3e43-11ed-b809-eb3f8635957b",
        "sensor": "Temperature Sensor 1",
        "event_properties": [
            {
                "event_property": "Temperature",
                "value": 25.2
            }
        ]
    },
    {
        "timestamp": 1664269502187,
        "fermentor": "AA0C-8AD7B319D4A4M",
        "event_type": "MeasurePh",
        "fermentation_run": "6e5e05e0-3e43-11ed-b809-eb3f8635957b",
        "sensor": "Ph Sensor 1",
        "event_properties": [
            {
                "event_property": "pH",
                "value": 6.99
            }
        ]
    },
    {
        "timestamp": 1664269502187,
        "fermentor": "AA0C-8AD7B319D4A4M",
        "event_type": "MeasureDO",
        "fermentation_run": "6e5e05e0-3e43-11ed-b809-eb3f8635957b",
        "sensor": "DO Sensor 1",
        "event_properties": [
            {
                "event_property": "DissolvedOxygen",
                "value": 10.33
            }
        ]
    },
    {
        "timestamp": 1664269502187,
        "fermentor": "AA0C-8AD7B319D4A4M",
        "event_type": "MeasureTemperature",
        "fermentation_run": "6e5e05e0-3e43-11ed-b809-eb3f8635957b",
        "sensor": "Temperature Sensor 1",
        "event_properties": [
            {
                "event_property": "Temperature",
                "value": 24.74
            }
        ]
    },
    {
        "timestamp": 1664269504188,
        "fermentor": "AA0C-8AD7B319D4A4M",
        "event_type": "MeasurePh",
        "fermentation_run": "6e5e05e0-3e43-11ed-b809-eb3f8635957b",
        "sensor": "Ph Sensor 1",
        "event_properties": [
            {
                "event_property": "pH",
                "value": 7.37
            }
        ]
    },
    {
        "timestamp": 1664269504188,
        "fermentor": "AA0C-8AD7B319D4A4M",
        "event_type": "MeasureDO",
        "fermentation_run": "6e5e05e0-3e43-11ed-b809-eb3f8635957b",
        "sensor": "DO Sensor 1",
        "event_properties": [
            {
                "event_property": "DissolvedOxygen",
                "value": 10.76
            }
        ]
    },
    {
        "timestamp": 1664269504188,
        "fermentor": "AA0C-8AD7B319D4A4M",
        "event_type": "MeasureTemperature",
        "fermentation_run": "6e5e05e0-3e43-11ed-b809-eb3f8635957b",
        "sensor": "Temperature Sensor 1",
        "event_properties": [
            {
                "event_property": "Temperature",
                "value": 24.89
            }
        ]
    },
    {
        "timestamp": 1664269506188,
        "fermentor": "AA0C-8AD7B319D4A4M",
        "event_type": "MeasurePh",
        "fermentation_run": "6e5e05e0-3e43-11ed-b809-eb3f8635957b",
        "sensor": "Ph Sensor 1",
        "event_properties": [
            {
                "event_property": "pH",
                "value": 7.27
            }
        ]
    },
    {
        "timestamp": 1664269506188,
        "fermentor": "AA0C-8AD7B319D4A4M",
        "event_type": "MeasureDO",
        "fermentation_run": "6e5e05e0-3e43-11ed-b809-eb3f8635957b",
        "sensor": "DO Sensor 1",
        "event_properties": [
            {
                "event_property": "DissolvedOxygen",
                "value": 11.28
            }
        ]
    },
    {
        "timestamp": 1664269506188,
        "fermentor": "AA0C-8AD7B319D4A4M",
        "event_type": "MeasureTemperature",
        "fermentation_run": "6e5e05e0-3e43-11ed-b809-eb3f8635957b",
        "sensor": "Temperature Sensor 1",
        "event_properties": [
            {
                "event_property": "Temperature",
                "value": 24.17
            }
        ]
    },
    {
        "timestamp": 1664269508189,
        "fermentor": "AA0C-8AD7B319D4A4M",
        "event_type": "MeasurePh",
        "fermentation_run": "6e5e05e0-3e43-11ed-b809-eb3f8635957b",
        "sensor": "Ph Sensor 1",
        "event_properties": [
            {
                "event_property": "pH",
                "value": 7.15
            }
        ]
    },
    {
        "timestamp": 1664269508190,
        "fermentor": "AA0C-8AD7B319D4A4M",
        "event_type": "MeasureDO",
        "fermentation_run": "6e5e05e0-3e43-11ed-b809-eb3f8635957b",
        "sensor": "DO Sensor 1",
        "event_properties": [
            {
                "event_property": "DissolvedOxygen",
                "value": 10.98
            }
        ]
    },
    {
        "timestamp": 1664269508190,
        "fermentor": "AA0C-8AD7B319D4A4M",
        "event_type": "MeasureTemperature",
        "fermentation_run": "6e5e05e0-3e43-11ed-b809-eb3f8635957b",
        "sensor": "Temperature Sensor 1",
        "event_properties": [
            {
                "event_property": "Temperature",
                "value": 24.07
            }
        ]
    },
    {
        "timestamp": 1664269510188,
        "fermentor": "AA0C-8AD7B319D4A4M",
        "event_type": "MeasurePh",
        "fermentation_run": "6e5e05e0-3e43-11ed-b809-eb3f8635957b",
        "sensor": "Ph Sensor 1",
        "event_properties": [
            {
                "event_property": "pH",
                "value": 6.92
            }
        ]
    },
    {
        "timestamp": 1664269510188,
        "fermentor": "AA0C-8AD7B319D4A4M",
        "event_type": "MeasureDO",
        "fermentation_run": "6e5e05e0-3e43-11ed-b809-eb3f8635957b",
        "sensor": "DO Sensor 1",
        "event_properties": [
            {
                "event_property": "DissolvedOxygen",
                "value": 12.6
            }
        ]
    },
    {
        "timestamp": 1664269510188,
        "fermentor": "AA0C-8AD7B319D4A4M",
        "event_type": "MeasureTemperature",
        "fermentation_run": "6e5e05e0-3e43-11ed-b809-eb3f8635957b",
        "sensor": "Temperature Sensor 1",
        "event_properties": [
            {
                "event_property": "Temperature",
                "value": 24.76
            }
        ]
    },
    {
        "timestamp": 1664269512188,
        "fermentor": "AA0C-8AD7B319D4A4M",
        "event_type": "MeasurePh",
        "fermentation_run": "6e5e05e0-3e43-11ed-b809-eb3f8635957b",
        "sensor": "Ph Sensor 1",
        "event_properties": [
            {
                "event_property": "pH",
                "value": 6.61
            }
        ]
    },
    {
        "timestamp": 1664269512189,
        "fermentor": "AA0C-8AD7B319D4A4M",
        "event_type": "MeasureDO",
        "fermentation_run": "6e5e05e0-3e43-11ed-b809-eb3f8635957b",
        "sensor": "DO Sensor 1",
        "event_properties": [
            {
                "event_property": "DissolvedOxygen",
                "value": 14.7
            }
        ]
    },
    {
        "timestamp": 1664269512189,
        "fermentor": "AA0C-8AD7B319D4A4M",
        "event_type": "MeasureTemperature",
        "fermentation_run": "6e5e05e0-3e43-11ed-b809-eb3f8635957b",
        "sensor": "Temperature Sensor 1",
        "event_properties": [
            {
                "event_property": "Temperature",
                "value": 24.58
            }
        ]
    },
    {
        "timestamp": 1664269514187,
        "fermentor": "AA0C-8AD7B319D4A4M",
        "event_type": "MeasurePh",
        "fermentation_run": "6e5e05e0-3e43-11ed-b809-eb3f8635957b",
        "sensor": "Ph Sensor 1",
        "event_properties": [
            {
                "event_property": "pH",
                "value": 6.78
            }
        ]
    },
    {
        "timestamp": 1664269514188,
        "fermentor": "AA0C-8AD7B319D4A4M",
        "event_type": "MeasureDO",
        "fermentation_run": "6e5e05e0-3e43-11ed-b809-eb3f8635957b",
        "sensor": "DO Sensor 1",
        "event_properties": [
            {
                "event_property": "DissolvedOxygen",
                "value": 12.45
            }
        ]
    },
    {
        "timestamp": 1664269514188,
        "fermentor": "AA0C-8AD7B319D4A4M",
        "event_type": "MeasureTemperature",
        "fermentation_run": "6e5e05e0-3e43-11ed-b809-eb3f8635957b",
        "sensor": "Temperature Sensor 1",
        "event_properties": [
            {
                "event_property": "Temperature",
                "value": 25.61
            }
        ]
    },
    {
        "timestamp": 1664269516190,
        "fermentor": "AA0C-8AD7B319D4A4M",
        "event_type": "MeasurePh",
        "fermentation_run": "6e5e05e0-3e43-11ed-b809-eb3f8635957b",
        "sensor": "Ph Sensor 1",
        "event_properties": [
            {
                "event_property": "pH",
                "value": 6.45
            }
        ]
    },
    {
        "timestamp": 1664269516190,
        "fermentor": "AA0C-8AD7B319D4A4M",
        "event_type": "MeasureDO",
        "fermentation_run": "6e5e05e0-3e43-11ed-b809-eb3f8635957b",
        "sensor": "DO Sensor 1",
        "event_properties": [
            {
                "event_property": "DissolvedOxygen",
                "value": 14.03
            }
        ]
    },
    {
        "timestamp": 1664269516190,
        "fermentor": "AA0C-8AD7B319D4A4M",
        "event_type": "MeasureTemperature",
        "fermentation_run": "6e5e05e0-3e43-11ed-b809-eb3f8635957b",
        "sensor": "Temperature Sensor 1",
        "event_properties": [
            {
                "event_property": "Temperature",
                "value": 26.92
            }
        ]
    },
    {
        "timestamp": 1664269518189,
        "fermentor": "AA0C-8AD7B319D4A4M",
        "event_type": "MeasurePh",
        "fermentation_run": "6e5e05e0-3e43-11ed-b809-eb3f8635957b",
        "sensor": "Ph Sensor 1",
        "event_properties": [
            {
                "event_property": "pH",
                "value": 6.18
            }
        ]
    },
    {
        "timestamp": 1664269518189,
        "fermentor": "AA0C-8AD7B319D4A4M",
        "event_type": "MeasureDO",
        "fermentation_run": "6e5e05e0-3e43-11ed-b809-eb3f8635957b",
        "sensor": "DO Sensor 1",
        "event_properties": [
            {
                "event_property": "DissolvedOxygen",
                "value": 13.7
            }
        ]
    },
    {
        "timestamp": 1664269518189,
        "fermentor": "AA0C-8AD7B319D4A4M",
        "event_type": "EndRun",
        "fermentation_run": "6e5e05e0-3e43-11ed-b809-eb3f8635957b"
    }
]